module github.com/peyman1987/phonebook

// @version v1.0.0

go 1.21.0

require (
	github.com/davecgh/go-spew v1.1.1
	github.com/knadh/koanf/parsers/yaml v0.1.0
	github.com/knadh/koanf/providers/rawbytes v0.1.0
	github.com/knadh/koanf/providers/structs v0.1.0
	github.com/knadh/koanf/v2 v2.0.1
	github.com/mohammadne/phone-book v0.1.4
	github.com/spf13/cobra v1.7.0
	go.uber.org/zap v1.26.0
)

require (
	github.com/fatih/structs v1.1.0 // indirect
	github.com/inconshreveable/mousetrap v1.1.0 // indirect
	github.com/knadh/koanf/maps v0.1.1 // indirect
	github.com/kr/pretty v0.3.1 // indirect
	github.com/mitchellh/copystructure v1.2.0 // indirect
	github.com/mitchellh/mapstructure v1.5.0 // indirect
	github.com/mitchellh/reflectwalk v1.0.2 // indirect
	github.com/spf13/pflag v1.0.5 // indirect
	go.uber.org/multierr v1.11.0 // indirect
	gopkg.in/yaml.v3 v3.0.1 // indirect
)
